29

3 16
6
r 2 0 w
h 2 9 n
t 1 4 w
h 2 3 s
t 0 13 n
f 0 9 e
19 8

17 9
3
h 4 7 s
f 4 4 w
r 5 4 s
13 3

3 14
2
t 0 13 s
r 0 12 e
10 3

1 14
10
r 0 5 s
h 0 9 n
t 0 12 w
h 0 3 s
r 0 4 e
h 0 10 w
f 0 8 e
h 0 13 e
h 0 4 w
r 0 11 s
5 1

5 4
7
h 3 0 w
t 2 1 w
h 4 3 e
t 3 1 e
h 3 1 w
r 4 2 e
f 1 0 s
3 1

9 19
4
h 6 17 w
h 0 7 s
t 4 2 w
t 0 17 e
18 10

10 15
10
h 5 13 s
r 4 2 s
f 5 2 w
r 0 11 n
t 9 0 n
f 4 2 n
r 4 6 w
f 7 3 w
r 3 14 n
r 6 3 w
8 9

18 10
2
r 5 1 e
f 4 5 w
16 12

6 14
10
t 3 8 e
f 5 11 n
f 1 5 s
r 4 11 n
h 1 11 e
t 2 11 s
h 1 1 s
h 2 2 n
t 4 13 s
r 0 13 e
5 9

1 11
6
r 0 5 s
t 0 6 e
r 0 10 n
t 0 9 s
r 0 8 w
r 0 0 s
5 10

18 13
3
h 13 9 s
f 14 2 n
r 3 0 e
17 9

7 20
8
r 5 5 w
f 3 8 e
f 1 11 e
h 1 15 e
t 2 16 e
h 0 8 s
f 6 1 n
f 4 1 w
13 4

6 2
7
r 5 1 s
h 4 0 n
r 3 1 s
f 0 0 n
r 3 1 n
h 1 1 s
r 1 1 w
7 3

12 6
2
f 1 4 w
t 10 4 s
7 6

9 2
6
h 7 1 n
r 1 0 s
t 4 0 s
h 1 1 n
t 2 0 e
f 7 1 e
1 9

16 7
7
r 12 2 w
t 5 3 n
r 9 2 n
r 1 0 s
t 5 0 s
t 10 2 w
h 8 5 w
7 5

19 17
10
r 14 16 w
r 11 9 e
h 10 14 w
t 11 15 w
r 12 2 w
h 10 5 w
h 9 10 w
f 0 5 s
h 4 16 s
r 1 8 s
13 5

7 6
6
h 3 5 s
t 1 5 n
h 6 2 n
r 2 2 w
f 5 3 n
t 3 5 e
18 5

4 14
9
f 3 3 e
h 0 0 n
r 3 5 e
f 1 9 n
t 3 6 w
f 0 8 e
t 3 12 e
f 1 3 w
h 0 3 w
3 1

9 5
4
t 5 1 e
f 5 4 e
r 8 4 e
h 5 4 s
18 7

15 14
10
t 11 1 e
h 11 12 e
t 13 9 s
h 0 4 e
t 12 7 e
t 11 0 n
t 14 9 s
r 14 8 e
f 0 7 s
r 7 1 s
6 4

19 13
3
h 1 6 w
t 10 0 n
f 1 8 n
19 8

19 18
2
r 6 4 e
f 14 11 n
15 5

2 18
9
r 1 15 w
h 1 12 n
f 0 16 e
h 1 4 n
t 0 1 s
h 1 11 w
t 1 17 e
t 1 13 w
t 1 7 s
15 10

11 4
7
r 2 2 e
h 3 0 e
f 1 1 w
r 2 2 w
h 7 3 n
t 2 3 e
t 9 3 n
2 9

17 7
2
f 5 1 e
h 5 2 s
10 3

6 4
2
t 5 3 w
h 4 2 n
18 5

2 17
7
h 0 16 s
h 0 3 n
t 0 1 n
h 1 14 w
t 0 9 e
f 0 7 w
h 0 7 n
5 6

4 3
8
h 3 0 n
f 0 1 w
h 3 0 s
f 1 1 e
h 0 0 s
f 1 2 w
t 2 1 w
f 1 2 s
3 1
