*** Darwin 4x4 ***
Turn = 0.
  0123
0 ....
1 ....
2 ....
3 r...

Turn = 2.
  0123
0 ....
1 ....
2 ....
3 ..r.

*** Darwin 4x6 ***
Turn = 0.
  012345
0 ......
1 ......
2 .r....
3 ......

Turn = 1.
  012345
0 ......
1 ......
2 r.....
3 ......

Turn = 2.
  012345
0 ......
1 ......
2 r.....
3 ......

*** Darwin 9x7 ***
Turn = 0.
  0123456
0 .......
1 ......t
2 .......
3 .......
4 .......
5 .......
6 .......
7 .......
8 .......

Turn = 58.
  0123456
0 .......
1 ......t
2 .......
3 .......
4 .......
5 .......
6 .......
7 .......
8 .......

Turn = 116.
  0123456
0 .......
1 ......t
2 .......
3 .......
4 .......
5 .......
6 .......
7 .......
8 .......

Turn = 174.
  0123456
0 .......
1 ......t
2 .......
3 .......
4 .......
5 .......
6 .......
7 .......
8 .......

*** Darwin 5x6 ***
Turn = 0.
  012345
0 r.....
1 ......
2 ......
3 ......
4 ......

Turn = 1.
  012345
0 r.....
1 ......
2 ......
3 ......
4 ......

Turn = 2.
  012345
0 .r....
1 ......
2 ......
3 ......
4 ......

Turn = 3.
  012345
0 ..r...
1 ......
2 ......
3 ......
4 ......

Turn = 4.
  012345
0 ...r..
1 ......
2 ......
3 ......
4 ......

*** Darwin 9x9 ***
Turn = 0.
  012345678
0 f........
1 .........
2 .....f...
3 .........
4 .........
5 .........
6 .........
7 .........
8 .........

Turn = 25.
  012345678
0 f........
1 .........
2 .....f...
3 .........
4 .........
5 .........
6 .........
7 .........
8 .........

Turn = 50.
  012345678
0 f........
1 .........
2 .....f...
3 .........
4 .........
5 .........
6 .........
7 .........
8 .........

Turn = 75.
  012345678
0 f........
1 .........
2 .....f...
3 .........
4 .........
5 .........
6 .........
7 .........
8 .........

Turn = 100.
  012345678
0 f........
1 .........
2 .....f...
3 .........
4 .........
5 .........
6 .........
7 .........
8 .........

*** Darwin 6x6 ***
Turn = 0.
  012345
0 ......
1 ....f.
2 ...f..
3 ......
4 ......
5 ......

Turn = 25.
  012345
0 ......
1 ....f.
2 ...f..
3 ......
4 ......
5 ......

Turn = 50.
  012345
0 ......
1 ....f.
2 ...f..
3 ......
4 ......
5 ......

Turn = 75.
  012345
0 ......
1 ....f.
2 ...f..
3 ......
4 ......
5 ......

Turn = 100.
  012345
0 ......
1 ....f.
2 ...f..
3 ......
4 ......
5 ......

*** Darwin 7x7 ***
Turn = 0.
  0123456
0 .......
1 f......
2 .......
3 ....r..
4 .......
5 .......
6 .......

Turn = 98.
  0123456
0 .....r.
1 .......
2 .......
3 r......
4 .......
5 .......
6 .......

*** Darwin 4x5 ***
Turn = 0.
  01234
0 .....
1 ..r..
2 ...h.
3 .....

Turn = 100.
  01234
0 .r...
1 ..r..
2 .....
3 .....

*** Darwin 10x12 ***
Turn = 0.
  012345678901
0 ............
1 .........f..
2 ............
3 ...h........
4 ............
5 ............
6 ..t.........
7 ............
8 ...r.......t
9 ......f.....

*** Darwin 8x8 ***
Turn = 0.
  01234567
0 ........
1 ..r.....
2 .....t..
3 ........
4 ........
5 ........
6 ........
7 ........

Turn = 3.
  01234567
0 ........
1 .....t..
2 .....t..
3 ........
4 ........
5 ........
6 ........
7 ........

Turn = 6.
  01234567
0 ........
1 .....t..
2 .....t..
3 ........
4 ........
5 ........
6 ........
7 ........

Turn = 9.
  01234567
0 ........
1 .....t..
2 .....t..
3 ........
4 ........
5 ........
6 ........
7 ........

*** Darwin 8x8 ***
Turn = 0.
  01234567
0 ........
1 ..t.....
2 ...t....
3 .....t..
4 .....t..
5 ........
6 ........
7 ........

Turn = 1.
  01234567
0 ........
1 ..t.....
2 ...t....
3 .....t..
4 .....t..
5 ........
6 ........
7 ........

*** Darwin 2x2 ***
Turn = 0.
  01
0 tt
1 rr

Turn = 3.
  01
0 tt
1 tt

*** Darwin 18x11 ***
Turn = 0.
  01234567890
0 ...........
1 ...........
2 ...........
3 .t.........
4 ...........
5 ..........h
6 ...........
7 ...........
8 t..........
9 ...........
0 ...........
1 .h.........
2 ...........
3 ...........
4 ...........
5 ...........
6 ...........
7 ...........

Turn = 5.
  01234567890
0 ...........
1 ...........
2 ...........
3 .t.........
4 ...........
5 ...........
6 ...........
7 ...........
8 t..........
9 ...........
0 ..........h
1 ......h....
2 ...........
3 ...........
4 ...........
5 ...........
6 ...........
7 ...........

Turn = 10.
  01234567890
0 ...........
1 ...........
2 ...........
3 .t.........
4 ...........
5 ...........
6 ...........
7 ...........
8 t..........
9 ...........
0 ...........
1 ..........h
2 ...........
3 ...........
4 ...........
5 ..........h
6 ...........
7 ...........

*** Darwin 6x5 ***
Turn = 0.
  01234
0 .....
1 .....
2 .....
3 .t...
4 .f...
5 .....

Turn = 10.
  01234
0 .....
1 .....
2 .....
3 .t...
4 .t...
5 .....

Turn = 20.
  01234
0 .....
1 .....
2 .....
3 .t...
4 .t...
5 .....

*** Darwin 9x9 ***
Turn = 0.
  012345678
0 h........
1 ......f..
2 .....t...
3 .........
4 .........
5 .........
6 ..r......
7 .........
8 .........

Turn = 2.
  012345678
0 ..h......
1 ......f..
2 .....t...
3 .........
4 .........
5 .........
6 .........
7 .........
8 ..r......

Turn = 4.
  012345678
0 ....h....
1 ......f..
2 .....t...
3 .........
4 .........
5 .........
6 .........
7 .........
8 .r.......

*** Darwin 9x9 ***
Turn = 0.
  012345678
0 h...f....
1 .rr......
2 ..f.tt...
3 .........
4 .........
5 .........
6 .........
7 .........
8 .........

Turn = 5.
  012345678
0 r...f....
1 .........
2 ..f.tt...
3 .........
4 .........
5 h........
6 .r.......
7 .........
8 .........

Turn = 10.
  012345678
0 ...rf....
1 .........
2 ..f.tt...
3 .........
4 .........
5 .........
6 .........
7 .........
8 rr.......

Turn = 15.
  012345678
0 .......r.
1 ...rr....
2 ..f......
3 .........
4 .....r...
5 .r.......
6 .........
7 .........
8 .r.......

*** Darwin 9x9 ***
Turn = 0.
  012345678
0 t........
1 .fh......
2 .f.......
3 ..rf.....
4 ...hh....
5 ....f....
6 ...th...h
7 ......t..
8 .........

Turn = 5.
  012345678
0 t........
1 .fr.....h
2 r........
3 r..f.....
4 ........h
5 ...tf....
6 ...t....h
7 ......t..
8 .........

Turn = 10.
  012345678
0 rr......h
1 rr.......
2 r........
3 ...f.....
4 ........h
5 ...tt....
6 ...t....h
7 ......t..
8 .........

Turn = 15.
  012345678
0 .....r..h
1 rr.......
2 .........
3 ...f.....
4 r.......h
5 ...tt....
6 ...t....h
7 r.....t..
8 .........

*** Darwin 8x8 ***
Turn = 0.
  01234567
0 t.......
1 .fh.....
2 ..fth...
3 ..r.h...
4 .t..f...
5 ..f.rf..
6 .h......
7 ........

Turn = 50.
  01234567
0 rr..rr.r
1 .r.....r
2 ........
3 ....t...
4 ....tt.r
5 .......r
6 ........
7 .r..r...

Turn = 100.
  01234567
0 r.r....r
1 ...rr.r.
2 .......r
3 r......r
4 .......r
5 ........
6 .......r
7 .....rrr

Turn = 150.
  01234567
0 .....rr.
1 .r......
2 ..r.....
3 ..rrr...
4 r.......
5 ....r...
6 rr..r...
7 .....rr.

*** Darwin 13x2 ***
Turn = 0.
  01
0 ..
1 .t
2 ..
3 ..
4 ..
5 ..
6 ..
7 h.
8 ..
9 ..
0 ..
1 ..
2 ..

Turn = 2.
  01
0 ..
1 .t
2 ..
3 ..
4 ..
5 h.
6 ..
7 ..
8 ..
9 ..
0 ..
1 ..
2 ..

Turn = 4.
  01
0 ..
1 .t
2 ..
3 h.
4 ..
5 ..
6 ..
7 ..
8 ..
9 ..
0 ..
1 ..
2 ..

Turn = 6.
  01
0 ..
1 ht
2 ..
3 ..
4 ..
5 ..
6 ..
7 ..
8 ..
9 ..
0 ..
1 ..
2 ..

Turn = 8.
  01
0 h.
1 .t
2 ..
3 ..
4 ..
5 ..
6 ..
7 ..
8 ..
9 ..
0 ..
1 ..
2 ..

*** Darwin 7x11 ***
Turn = 0.
  01234567890
0 ......t....
1 ........r..
2 ..r........
3 .......r...
4 ...........
5 ...........
6 ........h..

Turn = 3.
  01234567890
0 ......t....
1 ...........
2 ...........
3 ...........
4 ........r..
5 ..r........
6 .......r..h

*** Darwin 6x10 ***
Turn = 0.
  0123456789
0 .......rr.
1 r.........
2 ..h..ffrf.
3 ...t..t...
4 t....h....
5 ..........

Turn = 9.
  0123456789
0 ........r.
1 .......t..
2 .....tttt.
3 ...t..tt..
4 t.........
5 .....h...r

Turn = 18.
  0123456789
0 .......t..
1 .......t..
2 .....tttt.
3 ...t..tt..
4 t.....t...
5 .r........

*** Darwin 2x10 ***
Turn = 0.
  0123456789
0 .......fh.
1 ..hf..t...

Turn = 100.
  0123456789
0 .......fh.
1 ..hf..t...

*** Darwin 20x6 ***
Turn = 0.
  012345
0 ......
1 .r....
2 ......
3 ......
4 ......
5 ......
6 ....t.
7 ......
8 ......
9 ..f...
0 ......
1 .....r
2 ..t...
3 ..f.f.
4 ......
5 ....t.
6 ......
7 ......
8 ..h...
9 ......

Turn = 5.
  012345
0 ......
1 ......
2 ......
3 ......
4 ......
5 ......
6 .r..t.
7 ......
8 ......
9 ..f...
0 ......
1 r.....
2 ..t...
3 ..t.f.
4 ......
5 ....t.
6 ......
7 ......
8 .....h
9 ......

Turn = 10.
  012345
0 ......
1 ......
2 ......
3 ......
4 ......
5 ......
6 ....t.
7 r.....
8 ......
9 ..f...
0 ......
1 .r....
2 ..t...
3 ..t.f.
4 ......
5 ....t.
6 ......
7 ......
8 .....h
9 ......
