*** Darwin 7x7 ***
Turn = 0.
  0123456
0 h......
1 h......
2 .....h.
3 .....h.
4 .......
5 .......
6 .......

Turn = 1.
  0123456
0 h......
1 .......
2 h....h.
3 .......
4 .....h.
5 .......
6 .......

Turn = 2.
  0123456
0 .......
1 h......
2 .......
3 h....h.
4 .......
5 .....h.
6 .......

Turn = 3.
  0123456
0 .......
1 .......
2 h......
3 .......
4 h....h.
5 .......
6 .....h.

Turn = 4.
  0123456
0 .......
1 .......
2 .......
3 h......
4 .......
5 h....h.
6 .....h.

*** Darwin 11x5 ***
Turn = 0.
  01234
0 .....
1 .....
2 .t...
3 t....
4 .....
5 .t...
6 .....
7 ....f
8 .....
9 .....
0 .....

Turn = 2.
  01234
0 .....
1 .....
2 .t...
3 t....
4 .....
5 .t...
6 .....
7 ....f
8 .....
9 .....
0 .....

Turn = 4.
  01234
0 .....
1 .....
2 .t...
3 t....
4 .....
5 .t...
6 .....
7 ....f
8 .....
9 .....
0 .....

*** Darwin 8x5 ***
Turn = 0.
  01234
0 .f...
1 th...
2 .....
3 ...f.
4 .f...
5 r....
6 rt...
7 ...f.

Turn = 1.
  01234
0 .f...
1 t.h..
2 .....
3 ...f.
4 .f...
5 r....
6 .t...
7 r..f.

Turn = 2.
  01234
0 .f...
1 t..h.
2 .....
3 ...f.
4 .f...
5 r....
6 .t...
7 r..f.

Turn = 3.
  01234
0 .f...
1 t...h
2 .....
3 ...f.
4 .f...
5 .....
6 rt...
7 r..f.

*** Darwin 9x4 ***
Turn = 0.
  0123
0 ....
1 ....
2 ....
3 ....
4 .r..
5 .h..
6 ...t
7 trrr
8 .f..

Turn = 1.
  0123
0 ....
1 ....
2 ....
3 ....
4 .r..
5 ..r.
6 ...t
7 tr..
8 .rrr

Turn = 2.
  0123
0 ....
1 ....
2 ....
3 ....
4 ....
5 .r.r
6 ...t
7 tr..
8 .rrr

Turn = 3.
  0123
0 ....
1 ....
2 ....
3 ....
4 ....
5 ...r
6 .r.t
7 tt..
8 .rrr

Turn = 4.
  0123
0 ....
1 ....
2 ....
3 ....
4 ....
5 ...r
6 .t.r
7 tt.r
8 .rr.

Turn = 5.
  0123
0 ....
1 ....
2 ....
3 ....
4 ....
5 ...r
6 .t.r
7 tr.r
8 .rr.

*** Darwin 10x11 ***
Turn = 0.
  01234567890
0 ...........
1 ...........
2 ...........
3 ..h........
4 ...........
5 ...........
6 ...........
7 .......f..r
8 .........h.
9 ..........h

Turn = 2.
  01234567890
0 ...........
1 ...........
2 ...........
3 ....h......
4 ...........
5 ...........
6 ...........
7 .......f...
8 .........hr
9 ..........r

Turn = 4.
  01234567890
0 ...........
1 ...........
2 ...........
3 ......h....
4 ...........
5 ...........
6 ...........
7 .......f...
8 .........hr
9 .........r.

*** Darwin 4x11 ***
Turn = 0.
  01234567890
0 .r....rt...
1 ...t..h....
2 ...t.......
3 ......rf...

Turn = 1.
  01234567890
0 ......tt...
1 .r.t...r...
2 ...t.......
3 ......rf...

Turn = 2.
  01234567890
0 ......tt...
1 ...t....r..
2 .r.t.......
3 .....r.f...

Turn = 3.
  01234567890
0 ......tt...
1 ...t.....r.
2 ...t.......
3 .r..r..f...

Turn = 4.
  01234567890
0 ......tt...
1 ...t......r
2 ...t.......
3 .r.r...f...

Turn = 5.
  01234567890
0 ......tt...
1 ...t......r
2 ...t.......
3 ..rr...f...

*** Darwin 9x10 ***
Turn = 0.
  0123456789
0 h.........
1 ......f..t
2 ..........
3 ..........
4 ..........
5 ..........
6 ..........
7 ....r.....
8 ..........

Turn = 2.
  0123456789
0 ..h.......
1 ......f..t
2 ..........
3 ..........
4 ..........
5 ..........
6 ..........
7 ..........
8 ....r.....

Turn = 4.
  0123456789
0 ....h.....
1 ......f..t
2 ..........
3 ..........
4 ..........
5 ..........
6 ..........
7 ..........
8 ..r.......

*** Darwin 9x4 ***
Turn = 0.
  0123
0 ....
1 ....
2 ....
3 ....
4 h...
5 .h..
6 ..f.
7 .h..
8 ....

Turn = 1.
  0123
0 ....
1 ....
2 ....
3 ....
4 .h..
5 ..h.
6 ..f.
7 ..h.
8 ....

Turn = 2.
  0123
0 ....
1 ....
2 ....
3 ....
4 ..h.
5 ...h
6 ..f.
7 ...h
8 ....

Turn = 3.
  0123
0 ....
1 ....
2 ....
3 ....
4 ...h
5 ...h
6 ..f.
7 ...h
8 ....

Turn = 4.
  0123
0 ....
1 ....
2 ....
3 ....
4 ...h
5 ...h
6 ..f.
7 ...h
8 ....

Turn = 5.
  0123
0 ....
1 ....
2 ....
3 ....
4 ...h
5 ...h
6 ..f.
7 ...h
8 ....

*** Darwin 9x7 ***
Turn = 0.
  0123456
0 r...f..
1 ...f..h
2 .h..f..
3 ...t...
4 r......
5 .f...t.
6 .......
7 .......
8 .......

Turn = 1.
  0123456
0 ....f..
1 r..f..h
2 ..h.f..
3 ...t...
4 .......
5 rf...t.
6 .......
7 .......
8 .......

Turn = 2.
  0123456
0 ....f..
1 ...f..h
2 r..hf..
3 ...t...
4 .......
5 .f...t.
6 r......
7 .......
8 .......

Turn = 3.
  0123456
0 ....f..
1 ...f..h
2 ...hf..
3 r..t...
4 .......
5 .f...t.
6 .......
7 r......
8 .......

Turn = 4.
  0123456
0 ....f..
1 ...f..h
2 ...tf..
3 ...t...
4 r......
5 .f...t.
6 .......
7 .......
8 r......

Turn = 5.
  0123456
0 ....f..
1 ...f..h
2 ...tt..
3 ...t...
4 .......
5 rf...t.
6 .......
7 .......
8 r......

*** Darwin 7x6 ***
Turn = 0.
  012345
0 ......
1 ......
2 .frt..
3 ......
4 ......
5 ......
6 ......

Turn = 1.
  012345
0 ......
1 ......
2 .f.t..
3 ..r...
4 ......
5 ......
6 ......

Turn = 2.
  012345
0 ......
1 ......
2 .f.t..
3 ......
4 ..r...
5 ......
6 ......

Turn = 3.
  012345
0 ......
1 ......
2 .f.t..
3 ......
4 ......
5 ..r...
6 ......

Turn = 4.
  012345
0 ......
1 ......
2 .f.t..
3 ......
4 ......
5 ......
6 ..r...

Turn = 5.
  012345
0 ......
1 ......
2 .f.t..
3 ......
4 ......
5 ......
6 ..r...

*** Darwin 6x8 ***
Turn = 0.
  01234567
0 f..r.h..
1 ........
2 .f......
3 f...h...
4 ....h...
5 .t..f.h.

Turn = 2.
  01234567
0 f......h
1 ........
2 .f.r....
3 f.....h.
4 ..h.....
5 .t..f..h

Turn = 4.
  01234567
0 f......h
1 ........
2 .f......
3 f......h
4 h..r....
5 .t..f..h

*** Darwin 5x10 ***
Turn = 0.
  0123456789
0 ..........
1 ......h..t
2 ........h.
3 ..........
4 ..........

Turn = 1.
  0123456789
0 ..........
1 .......h.t
2 .........h
3 ..........
4 ..........

Turn = 2.
  0123456789
0 ..........
1 ........ht
2 .........t
3 ..........
4 ..........

Turn = 3.
  0123456789
0 ..........
1 ........ht
2 .........t
3 ..........
4 ..........

*** Darwin 3x9 ***
Turn = 0.
  012345678
0 h..f.....
1 ...h.....
2 .t....h..

Turn = 2.
  012345678
0 ..hf.....
1 .....h...
2 .t......h

Turn = 4.
  012345678
0 ..hf.....
1 .......h.
2 .t......h

*** Darwin 3x7 ***
Turn = 0.
  0123456
0 ....r..
1 fh.t...
2 .......

Turn = 2.
  0123456
0 .......
1 f.tt...
2 ....r..

Turn = 4.
  0123456
0 .......
1 f.tt...
2 ...r...

*** Darwin 3x5 ***
Turn = 0.
  01234
0 .....
1 ..f.h
2 .rr..

Turn = 1.
  01234
0 .....
1 ..f.h
2 .rr..

Turn = 2.
  01234
0 .....
1 ..f.h
2 r..r.

Turn = 3.
  01234
0 .....
1 ..f.h
2 r...r

Turn = 4.
  01234
0 .....
1 r.f.h
2 ....r

Turn = 5.
  01234
0 r....
1 ..f.h
2 ....r

*** Darwin 6x7 ***
Turn = 0.
  0123456
0 .......
1 .......
2 .....f.
3 ...h.ft
4 ..t.f.f
5 ..f....

Turn = 2.
  0123456
0 .......
1 .......
2 .....f.
3 ....ttt
4 ..t.f.f
5 ..t....

Turn = 4.
  0123456
0 .......
1 .......
2 .....f.
3 ....ttt
4 ..t.f.t
5 ..t....

*** Darwin 11x11 ***
Turn = 0.
  01234567890
0 ...........
1 ...t.......
2 ...........
3 ...t.......
4 ...........
5 .....t.....
6 ......t....
7 ...........
8 ...f....r..
9 ...........
0 ......t.t..

Turn = 1.
  01234567890
0 ...........
1 ...t.......
2 ...........
3 ...t.......
4 ...........
5 .....t.....
6 ......t....
7 ...........
8 ...f.......
9 ........r..
0 ......t.t..

Turn = 2.
  01234567890
0 ...........
1 ...t.......
2 ...........
3 ...t.......
4 ...........
5 .....t.....
6 ......t....
7 ...........
8 ...f.......
9 ........r..
0 ......t.r..

Turn = 3.
  01234567890
0 ...........
1 ...t.......
2 ...........
3 ...t.......
4 ...........
5 .....t.....
6 ......t....
7 ...........
8 ...f.......
9 ........r..
0 ......tr...

Turn = 4.
  01234567890
0 ...........
1 ...t.......
2 ...........
3 ...t.......
4 ...........
5 .....t.....
6 ......t....
7 ...........
8 ...f.......
9 .........r.
0 ......rr...

Turn = 5.
  01234567890
0 ...........
1 ...t.......
2 ...........
3 ...t.......
4 ...........
5 .....t.....
6 ......t....
7 ...........
8 ...f.......
9 ..........r
0 .....rr....

*** Darwin 3x5 ***
Turn = 0.
  01234
0 ...r.
1 rht..
2 r....

Turn = 1.
  01234
0 .....
1 rttr.
2 r....

Turn = 2.
  01234
0 .....
1 rtt..
2 .r.r.

Turn = 3.
  01234
0 r....
1 .tt..
2 ..rr.

Turn = 4.
  01234
0 r....
1 .tt..
2 ..rr.

Turn = 5.
  01234
0 .r...
1 .tt..
2 ..rr.

*** Darwin 7x11 ***
Turn = 0.
  01234567890
0 ......t....
1 ........r..
2 ..r........
3 .......r...
4 ...........
5 ...........
6 ........h..

Turn = 1.
  01234567890
0 ......t....
1 ...........
2 ........r..
3 ..r........
4 .......r...
5 ...........
6 .........h.

Turn = 2.
  01234567890
0 ......t....
1 ...........
2 ...........
3 ........r..
4 ..r........
5 .......r...
6 ..........h

Turn = 3.
  01234567890
0 ......t....
1 ...........
2 ...........
3 ...........
4 ........r..
5 ..r........
6 .......r..h

*** Darwin 5x5 ***
Turn = 0.
  01234
0 .rh..
1 .....
2 ..tf.
3 .....
4 ..tr.

Turn = 1.
  01234
0 ...h.
1 .r...
2 ..tt.
3 .....
4 ..tr.

Turn = 2.
  01234
0 ....h
1 .....
2 .rtt.
3 .....
4 ..rr.

Turn = 3.
  01234
0 ....h
1 .....
2 ..tt.
3 .r...
4 ..rr.
